…
velocidade <- viagens_vel %>%
  drop_na(dist) %>% 
  mutate(vel_ponderada = spd_kmh * dist) %>%
  group_by(id) %>%
  summarise(vel_ponderada = sum(vel_ponderada),
            distancia = sum(dist),
            tempo_min = sum(tempo) / 60) %>%
  mutate(vel_media = vel_ponderada / distancia)

velocidade
```

```
## # A tibble: 61 × 5
##    id    vel_ponderada distancia tempo_min vel_media
##    <chr>         <dbl>     <dbl>     <dbl>     <dbl>
##  1 A22         298188.     8303.      33.3      35.9
##  2 A24         299604.     8343.      30.3      35.9
##  3 A5          506990.    12353.      28.2      41.0
##  4 A7          207225.     7612.      54.3      27.2
##  5 B11         293346.     8741.      39.7      33.6
##  6 B17         414336.    10991.      36.8      37.7
##  7 B9          302079.     8192.      35.4      36.9
##  8 C13         576129.    10454.      21.8      55.1
##  9 C15         372682.    10397.      56.7      35.8
## 10 C16         579458.    11651.      28.1      49.7
## # … with 51 more rows
```
…
```r
## Valores entre 30 km/h e 70 km/h
vel_pred <- seq(30, 70, 1)

tempo_var <- predict(vel_reg, newdata = data.frame(vel_media = vel_pred))

resultados <- tibble(velocidade = vel_pred,
                     tempo_min = tempo_var)

resultados
```

```
## # A tibble: 41 × 2
##    velocidade tempo_min
##         <dbl>     <dbl>
##  1         30      44.4
##  2         31      42.3
##  3         32      40.3
##  4         33      38.4
##  5         34      36.7
##  6         35      35.1
##  7         36      33.6
##  8         37      32.1
##  9         38      30.8
## 10         39      29.6
## # … with 31 more rows
```
…
## Resultados

Unindo todos os resultados:


```r
resultados <- tibble(velocidade = vel_pred,
                     tempo = tempo_var,
                     risco = obito_var)

resultados
```

```
## # A tibble: 41 × 3
##    velocidade tempo  risco
##         <dbl> <dbl>  <dbl>
##  1         30  44.4 0.0778
##  2         31  42.3 0.0892
##  3         32  40.3 0.102 
##  4         33  38.4 0.117 
##  5         34  36.7 0.133 
##  6         35  35.1 0.151 
##  7         36  33.6 0.172 
##  8         37  32.1 0.194 
##  9         38  30.8 0.218 
## 10         39  29.6 0.245 
## # … with 31 more rows
```
…
